<?xml version="1.0"?>
<svg xmlns="http://www.w3.org/2000/svg" xmlns:xlink="http://www.w3.org/1999/xlink" version="1.1" id="Capa_1" x="0px" y="0px" viewBox="0 0 49.656 49.656" style="enable-background:new 0 0 49.656 49.656;" xml:space="preserve" width="512px" height="512px"><g><g>
	<polygon points="1.414,14.535 4.242,11.707 24.828,32.292 45.414,11.707 48.242,14.535 24.828,37.95  " data-original="#00AD97" class="active-path" data-old_color="#00AD97" fill="#000000"/>
	<path d="M24.828,39.364L0,14.536l4.242-4.242l20.586,20.585l20.586-20.586l4.242,4.242L24.828,39.364z    M2.828,14.536l22,22l22-22.001l-1.414-1.414L24.828,33.707L4.242,13.122L2.828,14.536z" data-original="#00AD97" class="active-path" data-old_color="#00AD97" fill="#000000"/>
</g></g> </svg>
